<?xml version="1.0" standalone="no"?>
<!DOCTYPE svg PUBLIC "-//W3C//DTD SVG 20010904//EN"
 "http://www.w3.org/TR/2001/REC-SVG-20010904/DTD/svg10.dtd">
<svg version="1.0" xmlns="http://www.w3.org/2000/svg"
 width="602.000000pt" height="602.000000pt" viewBox="0 0 602.000000 602.000000"
 preserveAspectRatio="xMidYMid meet">
<metadata>
Created by potrace 1.11, written by Peter Selinger 2001-2013
</metadata>
<g transform="translate(0.000000,602.000000) scale(0.100000,-0.100000)"
fill="#000000" stroke="none">
<path d="M2694 5196 c-17 -8 -40 -26 -52 -41 -21 -27 -22 -35 -22 -326 l0
-299 -687 0 c-635 0 -691 -1 -723 -18 -67 -33 -70 -51 -70 -374 l0 -288 -317
0 c-445 0 -413 30 -413 -390 l0 -290 -88 0 c-148 0 -237 -41 -281 -129 -29
-57 -33 -105 -21 -271 50 -719 312 -1281 725 -1555 500 -333 1550 -412 2379
-179 66 18 124 34 127 34 4 0 9 -37 10 -82 3 -66 9 -89 26 -114 48 -68 -15
-64 1088 -64 1103 0 1040 -4 1088 64 l22 31 3 848 c3 939 6 892 -62 940 -29
21 -43 22 -229 25 -156 3 -198 6 -194 16 3 7 24 58 47 114 l42 102 77 0 c245
0 474 87 637 242 85 81 135 153 182 260 l33 78 -28 25 c-125 110 -385 169
-642 145 -67 -6 -125 -9 -130 -6 -5 3 -11 23 -15 45 -23 147 -132 337 -268
467 -102 98 -220 173 -243 154 -28 -23 -106 -158 -141 -243 -64 -159 -77 -225
-78 -397 -1 -174 13 -239 81 -375 33 -65 34 -70 16 -82 -38 -28 -289 -93 -359
-93 -12 0 -14 53 -14 300 l0 300 -34 38 -34 37 -336 3 -336 3 0 632 c0 680 1
661 -53 701 -27 20 -41 21 -355 23 -258 2 -333 0 -358 -11z m640 -128 c24 -34
24 -483 -1 -510 -15 -17 -37 -18 -294 -18 -239 0 -280 2 -293 16 -14 13 -16
51 -16 256 0 211 2 244 17 260 15 17 37 18 294 18 276 0 278 0 293 -22z
m-1476 -670 c16 -16 17 -490 2 -519 -10 -18 -24 -19 -293 -19 -207 0 -286 3
-295 12 -17 17 -17 509 0 526 17 17 569 17 586 0z m740 0 c17 -17 17 -509 0
-526 -9 -9 -88 -12 -295 -12 -269 0 -283 1 -293 19 -15 29 -14 503 2 519 17
17 569 17 586 0z m734 -5 c16 -15 18 -36 18 -252 0 -198 -3 -240 -16 -259 -15
-22 -17 -22 -291 -22 -243 0 -279 2 -295 17 -16 15 -18 36 -18 259 0 207 2
245 16 258 13 14 54 16 291 16 243 0 279 -2 295 -17z m1510 -245 c65 -56 143
-155 187 -238 37 -68 81 -218 81 -274 0 -82 3 -84 73 -70 128 27 284 36 394
24 110 -12 239 -47 286 -78 l27 -19 -26 -49 c-66 -126 -173 -227 -309 -295
-122 -60 -215 -81 -390 -86 l-150 -5 -45 -112 c-24 -61 -54 -135 -68 -163
l-23 -53 -745 0 c-821 0 -783 3 -842 -64 l-32 -37 0 -719 0 -719 -82 -25
c-212 -64 -403 -104 -638 -133 -204 -25 -719 -25 -905 0 -428 59 -718 165
-929 341 l-61 51 175 6 c201 8 296 24 465 80 128 42 311 132 329 162 15 23
-11 71 -41 75 -11 2 -76 -24 -144 -57 -226 -109 -391 -146 -649 -146 -247 1
-237 -3 -311 108 -199 298 -319 711 -344 1187 -7 134 6 173 65 202 33 17 151
18 2041 18 2212 0 2087 -3 2287 62 93 31 208 95 218 122 3 8 -11 36 -30 64
-108 150 -151 363 -112 564 19 98 39 155 92 266 l45 94 27 -18 c15 -9 53 -39
84 -66z m-3719 -427 c15 -12 17 -43 17 -262 0 -212 -2 -250 -16 -263 -13 -14
-54 -16 -293 -16 -224 0 -281 3 -290 14 -8 9 -11 88 -9 267 l3 253 25 13 c37
19 540 14 563 -6z m730 0 c15 -12 17 -43 17 -262 0 -212 -2 -250 -16 -263 -13
-14 -54 -16 -293 -16 -224 0 -281 3 -290 14 -8 9 -11 88 -9 267 l3 253 25 13
c37 19 540 14 563 -6z m740 0 c15 -12 17 -43 17 -265 0 -183 -3 -255 -12 -264
-9 -9 -87 -12 -289 -12 -240 0 -280 2 -293 16 -14 14 -16 48 -14 267 l3 251
25 13 c37 19 540 14 563 -6z m743 -5 c22 -30 20 -482 -2 -514 -15 -22 -17 -22
-291 -22 -243 0 -279 2 -295 17 -16 15 -18 36 -18 258 0 247 3 264 40 278 8 3
136 5 283 4 253 -2 269 -3 283 -21z m717 13 c12 -7 25 -17 29 -23 4 -6 8 -117
8 -246 0 -197 -3 -239 -16 -258 -15 -22 -17 -22 -291 -22 -243 0 -279 2 -295
17 -16 15 -18 36 -18 258 0 247 3 265 40 278 31 11 521 7 543 -4z m-75 -2046
l-243 -243 -82 82 -83 83 160 160 160 160 -160 160 -160 160 82 82 83 83 242
-242 243 -243 -242 -242z m872 -153 l0 -80 -315 0 -315 0 0 80 0 80 315 0 315
0 0 -80z"/>
<path d="M2847 4984 c-4 -4 -7 -83 -7 -176 l0 -168 30 0 30 0 -2 173 c-3 164
-4 172 -23 175 -12 2 -24 0 -28 -4z"/>
<path d="M3017 4984 c-4 -4 -7 -83 -7 -176 l0 -168 30 0 30 0 -2 173 c-3 164
-4 172 -23 175 -12 2 -24 0 -28 -4z"/>
<path d="M3187 4984 c-4 -4 -7 -83 -7 -176 l0 -168 30 0 30 0 -2 173 c-3 164
-4 172 -23 175 -12 2 -24 0 -28 -4z"/>
<path d="M1365 4298 c-3 -8 -4 -86 -3 -173 l3 -160 30 0 30 0 0 170 0 170 -28
3 c-16 2 -29 -2 -32 -10z"/>
<path d="M1535 4298 c-3 -8 -4 -86 -3 -173 l3 -160 30 0 30 0 0 170 0 170 -28
3 c-16 2 -29 -2 -32 -10z"/>
<path d="M1705 4298 c-3 -8 -4 -86 -3 -173 l3 -160 30 0 30 0 0 170 0 170 -28
3 c-16 2 -29 -2 -32 -10z"/>
<path d="M2105 4298 c-3 -8 -4 -86 -3 -173 l3 -160 30 0 30 0 0 170 0 170 -28
3 c-16 2 -29 -2 -32 -10z"/>
<path d="M2275 4298 c-3 -8 -4 -86 -3 -173 l3 -160 30 0 30 0 0 170 0 170 -28
3 c-16 2 -29 -2 -32 -10z"/>
<path d="M2445 4298 c-3 -8 -4 -86 -3 -173 l3 -160 30 0 30 0 0 170 0 170 -28
3 c-16 2 -29 -2 -32 -10z"/>
<path d="M2845 4298 c-3 -8 -4 -86 -3 -173 l3 -160 25 0 25 0 0 170 c0 169 0
170 -23 173 -12 2 -24 -3 -27 -10z"/>
<path d="M3015 4298 c-3 -8 -4 -86 -3 -173 l3 -160 25 0 25 0 0 170 c0 169 0
170 -23 173 -12 2 -24 -3 -27 -10z"/>
<path d="M3185 4298 c-3 -8 -4 -86 -3 -173 l3 -160 25 0 25 0 0 170 c0 169 0
170 -23 173 -12 2 -24 -3 -27 -10z"/>
<path d="M1874 2155 c-46 -32 -56 -124 -18 -166 65 -72 194 -23 194 73 0 25
-3 27 -29 22 -38 -8 -75 26 -68 62 4 21 1 24 -27 24 -17 0 -41 -7 -52 -15z"/>
<path d="M635 3618 c-3 -8 -4 -86 -3 -173 l3 -160 27 -3 c37 -4 39 10 36 193
l-3 150 -28 3 c-16 2 -29 -2 -32 -10z"/>
<path d="M805 3618 c-3 -8 -4 -86 -3 -173 l3 -160 27 -3 c37 -4 39 10 36 193
l-3 150 -28 3 c-16 2 -29 -2 -32 -10z"/>
<path d="M975 3618 c-3 -8 -4 -86 -3 -173 l3 -160 27 -3 c37 -4 39 10 36 193
l-3 150 -28 3 c-16 2 -29 -2 -32 -10z"/>
<path d="M1365 3618 c-3 -8 -4 -86 -3 -173 l3 -160 30 0 30 0 0 170 0 170 -28
3 c-16 2 -29 -2 -32 -10z"/>
<path d="M1535 3618 c-3 -8 -4 -86 -3 -173 l3 -160 30 0 30 0 0 170 0 170 -28
3 c-16 2 -29 -2 -32 -10z"/>
<path d="M1705 3618 c-3 -8 -4 -86 -3 -173 l3 -160 30 0 30 0 0 170 0 170 -28
3 c-16 2 -29 -2 -32 -10z"/>
<path d="M2107 3624 c-10 -10 -8 -316 2 -332 4 -8 19 -12 32 -10 l24 3 0 170
0 170 -25 3 c-14 2 -29 0 -33 -4z"/>
<path d="M2277 3624 c-10 -10 -8 -316 2 -332 4 -8 19 -12 32 -10 l24 3 0 170
0 170 -25 3 c-14 2 -29 0 -33 -4z"/>
<path d="M2447 3624 c-10 -10 -8 -316 2 -332 4 -8 19 -12 32 -10 l24 3 0 170
0 170 -25 3 c-14 2 -29 0 -33 -4z"/>
<path d="M2842 3458 l3 -173 25 0 25 0 3 173 2 172 -30 0 -30 0 2 -172z"/>
<path d="M3012 3458 l3 -173 25 0 25 0 3 173 2 172 -30 0 -30 0 2 -172z"/>
<path d="M3182 3458 l3 -173 25 0 25 0 3 173 2 172 -30 0 -30 0 2 -172z"/>
<path d="M3582 3458 l3 -173 25 0 25 0 3 173 2 172 -30 0 -30 0 2 -172z"/>
<path d="M3752 3458 l3 -173 25 0 25 0 3 173 2 172 -30 0 -30 0 2 -172z"/>
<path d="M3922 3458 l3 -173 25 0 25 0 3 173 2 172 -30 0 -30 0 2 -172z"/>
</g>
</svg>
